{
    "name": "com.fdt.genericdatasaving.editor",
    "references": [
        "com.fdt.genericdatasaving",
        "com.fdt.common"
    ],
    "optionalUnityReferences": [],
    "includePlatforms": [
        "Editor"
    ],
    "excludePlatforms": [],
    "allowUnsafeCode": false,
    "overrideReferences": false,
    "precompiledReferences": [],
    "autoReferenced": true,
    "defineConstraints": [],
    "versionDefines": []
}